{
  "__type__": "cc.SpriteFrame",
  "content": {
    "name": "dungeon_door_closed",
    "texture": "de4c8912-5ccf-45c5-b599-5fb3a516497e",
    "atlas": "",
    "rect": [
      0,
      0,
      273,
      238
    ],
    "offset": [
      0,
      0
    ],
    "originalSize": [
      273,
      238
    ],
    "capInsets": [
      0,
      0,
      0,
      0
    ]
  }
}