{
  "__type__": "cc.SpriteFrame",
  "content": {
    "name": "idle_05",
    "texture": "7a2b8522-cd11-4b7a-85cd-621695c08b90",
    "atlas": "",
    "rect": [
      5,
      22,
      140,
      118
    ],
    "offset": [
      0,
      -7
    ],
    "originalSize": [
      150,
      148
    ],
    "capInsets": [
      0,
      0,
      0,
      0
    ]
  }
}