{
  "__type__": "cc.SpriteFrame",
  "content": {
    "name": "idle_7",
    "texture": "8ea4a307-2ead-42fa-94ed-29c65a03a92b",
    "atlas": "",
    "rect": [
      1,
      2,
      142,
      147
    ],
    "offset": [
      -0.5,
      -1
    ],
    "originalSize": [
      145,
      149
    ],
    "capInsets": [
      0,
      0,
      0,
      0
    ]
  }
}