{
  "__type__": "cc.SpriteFrame",
  "content": {
    "name": "attack_16",
    "texture": "a9d4a74c-f650-4423-95a6-1060d0b5f96d",
    "atlas": "",
    "rect": [
      4,
      4,
      159,
      171
    ],
    "offset": [
      -22.5,
      11
    ],
    "originalSize": [
      212,
      201
    ],
    "capInsets": [
      0,
      0,
      0,
      0
    ]
  }
}