{
  "__type__": "cc.SpriteFrame",
  "content": {
    "name": "teleport_07",
    "texture": "33274f38-bc7c-461c-a7f3-daa2efa7c579",
    "atlas": "",
    "rect": [
      12,
      22,
      166,
      199
    ],
    "offset": [
      -17.5,
      12.5
    ],
    "originalSize": [
      225,
      268
    ],
    "capInsets": [
      0,
      0,
      0,
      0
    ]
  }
}