{
  "__type__": "cc.SpriteFrame",
  "content": {
    "name": "run_03",
    "texture": "d01686d0-b7c4-409a-aa14-50478462dd16",
    "atlas": "",
    "rect": [
      8,
      0,
      128,
      144
    ],
    "offset": [
      -11.5,
      13
    ],
    "originalSize": [
      167,
      170
    ],
    "capInsets": [
      0,
      0,
      0,
      0
    ]
  }
}