{
  "__type__": "cc.SpriteFrame",
  "content": {
    "name": "idle_08",
    "texture": "b4b67c7e-7964-4989-b540-bdb51e5b0abf",
    "atlas": "",
    "rect": [
      3,
      3,
      185,
      154
    ],
    "offset": [
      1.5,
      8.5
    ],
    "originalSize": [
      188,
      177
    ],
    "capInsets": [
      0,
      0,
      0,
      0
    ]
  }
}