{
  "__type__": "cc.SpriteFrame",
  "content": {
    "name": "npc_body_2",
    "texture": "0b4dc656-fb66-45ff-8f82-10fd6dcef00b",
    "atlas": "",
    "rect": [
      0,
      0,
      60,
      49
    ],
    "offset": [
      0,
      0
    ],
    "originalSize": [
      60,
      49
    ],
    "capInsets": [
      0,
      0,
      0,
      0
    ]
  }
}