{
  "__type__": "cc.SpriteFrame",
  "content": {
    "name": "obj_06_02",
    "texture": "d11eb7d5-b3ba-4814-81ae-c632856dcda3",
    "atlas": "",
    "rect": [
      0,
      0,
      149,
      118
    ],
    "offset": [
      0,
      0
    ],
    "originalSize": [
      149,
      118
    ],
    "capInsets": [
      0,
      0,
      0,
      0
    ]
  }
}