{
  "__type__": "cc.SpriteFrame",
  "content": {
    "name": "door",
    "texture": "88bc1951-c9a7-41d7-8709-a15e049e2545",
    "atlas": "",
    "rect": [
      0,
      0,
      79,
      308
    ],
    "offset": [
      0,
      0
    ],
    "originalSize": [
      79,
      308
    ],
    "capInsets": [
      0,
      0,
      0,
      0
    ]
  }
}