{
  "__type__": "cc.SpriteFrame",
  "content": {
    "name": "frame_s_05",
    "texture": "ef412577-3856-4cd0-bcee-15bc1c1f3002",
    "atlas": "",
    "rect": [
      0,
      0,
      198,
      197
    ],
    "offset": [
      0,
      0
    ],
    "originalSize": [
      198,
      197
    ],
    "capInsets": [
      0,
      0,
      0,
      0
    ]
  }
}