{
  "__type__": "cc.SpriteFrame",
  "content": {
    "name": "cupboard_2",
    "texture": "9cc558f6-b3cf-417a-b785-5213f2b915e4",
    "atlas": "",
    "rect": [
      0,
      0,
      232,
      246
    ],
    "offset": [
      0,
      0
    ],
    "originalSize": [
      232,
      246
    ],
    "capInsets": [
      0,
      0,
      0,
      0
    ]
  }
}