{
  "__type__": "cc.SpriteFrame",
  "content": {
    "name": "Plank_11",
    "texture": "0a6a6b69-ea28-4b93-ba12-f4d1c4909d01",
    "atlas": "",
    "rect": [
      0,
      0,
      193,
      162
    ],
    "offset": [
      0,
      0
    ],
    "originalSize": [
      193,
      162
    ],
    "capInsets": [
      0,
      0,
      0,
      0
    ]
  }
}