{
  "__type__": "cc.SpriteFrame",
  "content": {
    "name": "lever_05",
    "texture": "c6d525f8-c861-476a-94f0-1bdbf643539a",
    "atlas": "",
    "rect": [
      39,
      22,
      133,
      90
    ],
    "offset": [
      17.5,
      -5.5
    ],
    "originalSize": [
      176,
      123
    ],
    "capInsets": [
      0,
      0,
      0,
      0
    ]
  }
}