{
  "__type__": "cc.SpriteFrame",
  "content": {
    "name": "stun_06",
    "texture": "b228ffd4-0125-4d58-95bc-1adffc76699b",
    "atlas": "",
    "rect": [
      31,
      14,
      439,
      296
    ],
    "offset": [
      3.5,
      36
    ],
    "originalSize": [
      494,
      396
    ],
    "capInsets": [
      0,
      0,
      0,
      0
    ]
  }
}