{
  "__type__": "cc.SpriteFrame",
  "content": {
    "name": "table_2 1",
    "texture": "1ea6fc08-16b0-44a3-80a1-a76c408ffa1a",
    "atlas": "",
    "rect": [
      0,
      0,
      224,
      75
    ],
    "offset": [
      -0.5,
      0
    ],
    "originalSize": [
      225,
      75
    ],
    "capInsets": [
      0,
      0,
      0,
      0
    ]
  }
}