{
  "__type__": "cc.SpriteFrame",
  "content": {
    "name": "banner_1",
    "texture": "bb12979a-f696-490f-abff-93862a6f5902",
    "atlas": "",
    "rect": [
      0,
      0,
      154,
      233
    ],
    "offset": [
      0,
      0
    ],
    "originalSize": [
      154,
      233
    ],
    "capInsets": [
      0,
      0,
      0,
      0
    ]
  }
}