{
  "__type__": "cc.SpriteFrame",
  "content": {
    "name": "attack_1_06",
    "texture": "3a3d4e09-142d-4d44-9225-7e76c6db7656",
    "atlas": "",
    "rect": [
      9,
      18,
      181,
      146
    ],
    "offset": [
      -46.5,
      0
    ],
    "originalSize": [
      292,
      182
    ],
    "capInsets": [
      0,
      0,
      0,
      0
    ]
  }
}