{
  "__type__": "cc.SpriteFrame",
  "content": {
    "name": "attack_1_07",
    "texture": "301427b9-0ab0-4de5-b165-86d6ab404906",
    "atlas": "",
    "rect": [
      4,
      18,
      157,
      146
    ],
    "offset": [
      -64.5,
      0
    ],
    "originalSize": [
      294,
      182
    ],
    "capInsets": [
      0,
      0,
      0,
      0
    ]
  }
}