{
  "__type__": "cc.SpriteFrame",
  "content": {
    "name": "idle_4",
    "texture": "20ece4c5-99e3-4043-811e-e865bcc3b765",
    "atlas": "",
    "rect": [
      8,
      7,
      216,
      142
    ],
    "offset": [
      2,
      -2
    ],
    "originalSize": [
      228,
      152
    ],
    "capInsets": [
      0,
      0,
      0,
      0
    ]
  }
}