{
  "__type__": "cc.SpriteFrame",
  "content": {
    "name": "die_00",
    "texture": "843a4a9c-6dd2-477d-a69c-8d0c3d62068b",
    "atlas": "",
    "rect": [
      121,
      22,
      169,
      157
    ],
    "offset": [
      57,
      9
    ],
    "originalSize": [
      297,
      219
    ],
    "capInsets": [
      0,
      0,
      0,
      0
    ]
  }
}