{
  "__type__": "cc.SpriteFrame",
  "content": {
    "name": "run_08",
    "texture": "5480d276-40af-40b7-9311-0b4e9cc8c2f8",
    "atlas": "",
    "rect": [
      2,
      2,
      226,
      166
    ],
    "offset": [
      -2.5,
      6.5
    ],
    "originalSize": [
      235,
      183
    ],
    "capInsets": [
      0,
      0,
      0,
      0
    ]
  }
}