{
  "__type__": "cc.SpriteFrame",
  "content": {
    "name": "attack_01",
    "texture": "7f6dafcd-b80c-40b4-a4af-6f5ecad0eba8",
    "atlas": "",
    "rect": [
      14,
      8,
      164,
      164
    ],
    "offset": [
      -11.5,
      9
    ],
    "originalSize": [
      215,
      198
    ],
    "capInsets": [
      0,
      0,
      0,
      0
    ]
  }
}