{
  "__type__": "cc.SpriteFrame",
  "content": {
    "name": "run_00",
    "texture": "2518c842-a78a-40d5-b1df-d03c29e1ae83",
    "atlas": "",
    "rect": [
      26,
      14,
      110,
      157
    ],
    "offset": [
      -2.5,
      -7
    ],
    "originalSize": [
      167,
      171
    ],
    "capInsets": [
      0,
      0,
      0,
      0
    ]
  }
}