{
  "__type__": "cc.SpriteFrame",
  "content": {
    "name": "die_01",
    "texture": "97d8f95c-d790-4541-9caf-68384e92e3c1",
    "atlas": "",
    "rect": [
      126,
      22,
      166,
      157
    ],
    "offset": [
      60.5,
      9
    ],
    "originalSize": [
      297,
      219
    ],
    "capInsets": [
      0,
      0,
      0,
      0
    ]
  }
}