{
  "__type__": "cc.SpriteFrame",
  "content": {
    "name": "roll_02",
    "texture": "d4f2bd08-5e6a-40d4-8dd4-10a7d36238c0",
    "atlas": "",
    "rect": [
      83,
      35,
      141,
      131
    ],
    "offset": [
      29,
      7.5
    ],
    "originalSize": [
      249,
      216
    ],
    "capInsets": [
      0,
      0,
      0,
      0
    ]
  }
}