{
  "__type__": "cc.SpriteFrame",
  "content": {
    "name": "idle_1_0",
    "texture": "ca875e30-552d-4a1c-a841-8bc92205bece",
    "atlas": "",
    "rect": [
      1,
      0,
      76,
      64
    ],
    "offset": [
      -0.5,
      0
    ],
    "originalSize": [
      79,
      64
    ],
    "capInsets": [
      0,
      0,
      0,
      0
    ]
  }
}