{
  "__type__": "cc.SpriteFrame",
  "content": {
    "name": "gear",
    "texture": "b23d7cb2-459d-473f-bb6a-84e47bf5659a",
    "atlas": "",
    "rect": [
      0,
      0,
      140,
      146
    ],
    "offset": [
      0,
      0
    ],
    "originalSize": [
      140,
      146
    ],
    "capInsets": [
      0,
      0,
      0,
      0
    ]
  }
}