{
  "__type__": "cc.SpriteFrame",
  "content": {
    "name": "idle_02",
    "texture": "b3298c0c-67cf-41f1-831f-780098ccc163",
    "atlas": "",
    "rect": [
      2,
      3,
      210,
      170
    ],
    "offset": [
      -3,
      -0.5
    ],
    "originalSize": [
      220,
      175
    ],
    "capInsets": [
      0,
      0,
      0,
      0
    ]
  }
}