{
  "__type__": "cc.SpriteFrame",
  "content": {
    "name": "attack_2_09",
    "texture": "45a6818d-d5e2-4426-9b64-1c7701971148",
    "atlas": "",
    "rect": [
      15,
      11,
      200,
      145
    ],
    "offset": [
      5.5,
      11
    ],
    "originalSize": [
      219,
      189
    ],
    "capInsets": [
      0,
      0,
      0,
      0
    ]
  }
}