{
  "__type__": "cc.SpriteFrame",
  "content": {
    "name": "fly_2",
    "texture": "b818f40e-dbab-49d2-9124-18c111b38209",
    "atlas": "",
    "rect": [
      3,
      3,
      83,
      56
    ],
    "offset": [
      0.5,
      2.5
    ],
    "originalSize": [
      88,
      67
    ],
    "capInsets": [
      0,
      0,
      0,
      0
    ]
  }
}