{
  "__type__": "cc.SpriteFrame",
  "content": {
    "name": "attack_2_14",
    "texture": "fb6eef1a-0fa0-4f7b-8915-fd9a81cc7e28",
    "atlas": "",
    "rect": [
      19,
      8,
      499,
      291
    ],
    "offset": [
      1.5,
      36.5
    ],
    "originalSize": [
      534,
      380
    ],
    "capInsets": [
      0,
      0,
      0,
      0
    ]
  }
}