{
  "__type__": "cc.SpriteFrame",
  "content": {
    "name": "idle_1",
    "texture": "ebb68fe0-f291-4024-b417-60752db84386",
    "atlas": "",
    "rect": [
      4,
      2,
      163,
      158
    ],
    "offset": [
      -12,
      13
    ],
    "originalSize": [
      195,
      188
    ],
    "capInsets": [
      0,
      0,
      0,
      0
    ]
  }
}