{
  "__type__": "cc.SpriteFrame",
  "content": {
    "name": "run_07",
    "texture": "45427d81-d792-4c14-aade-cdabaf9d4614",
    "atlas": "",
    "rect": [
      10,
      1,
      185,
      164
    ],
    "offset": [
      -6.5,
      13
    ],
    "originalSize": [
      218,
      192
    ],
    "capInsets": [
      0,
      0,
      0,
      0
    ]
  }
}