{
  "__type__": "cc.SpriteFrame",
  "content": {
    "name": "campfire_0",
    "texture": "69fc3cf9-9c70-46f9-a0ef-fb82f8806a28",
    "atlas": "",
    "rect": [
      41,
      36,
      206,
      128
    ],
    "offset": [
      1.5,
      -18
    ],
    "originalSize": [
      285,
      164
    ],
    "capInsets": [
      0,
      0,
      0,
      0
    ]
  }
}