{
  "__type__": "cc.SpriteFrame",
  "content": {
    "name": "frame_violet",
    "texture": "e34035a4-4e2d-47a7-8e98-dee541e97940",
    "atlas": "",
    "rect": [
      0,
      0,
      292,
      292
    ],
    "offset": [
      0,
      0
    ],
    "originalSize": [
      292,
      292
    ],
    "capInsets": [
      0,
      0,
      0,
      0
    ]
  }
}