{
  "__type__": "cc.SpriteFrame",
  "content": {
    "name": "break_5",
    "texture": "50529090-6fd8-49ff-9b8e-cfdf243bf70c",
    "atlas": "",
    "rect": [
      0,
      91,
      225,
      67
    ],
    "offset": [
      0,
      -34.5
    ],
    "originalSize": [
      225,
      180
    ],
    "capInsets": [
      0,
      0,
      0,
      0
    ]
  }
}