{
  "__type__": "cc.SpriteFrame",
  "content": {
    "name": "chest_3",
    "texture": "bdc95487-ed6b-4d89-acc6-17200a6416f7",
    "atlas": "",
    "rect": [
      40,
      47,
      177,
      143
    ],
    "offset": [
      0,
      -23
    ],
    "originalSize": [
      257,
      191
    ],
    "capInsets": [
      0,
      0,
      0,
      0
    ]
  }
}