{
  "__type__": "cc.SpriteFrame",
  "content": {
    "name": "die_00",
    "texture": "a48051ac-f281-4ff1-b5a2-636e5dd91292",
    "atlas": "",
    "rect": [
      154,
      21,
      162,
      160
    ],
    "offset": [
      64,
      14
    ],
    "originalSize": [
      342,
      230
    ],
    "capInsets": [
      0,
      0,
      0,
      0
    ]
  }
}