{
  "__type__": "cc.SpriteFrame",
  "content": {
    "name": "die_07",
    "texture": "37096651-7a00-4057-93e1-7fe2318a8187",
    "atlas": "",
    "rect": [
      9,
      81,
      277,
      109
    ],
    "offset": [
      -1,
      -26
    ],
    "originalSize": [
      297,
      219
    ],
    "capInsets": [
      0,
      0,
      0,
      0
    ]
  }
}