{
  "__type__": "cc.SpriteFrame",
  "content": {
    "name": "idle_04",
    "texture": "c8d9ba63-2573-4e52-86ae-fb84f0347936",
    "atlas": "",
    "rect": [
      3,
      12,
      114,
      61
    ],
    "offset": [
      0.5,
      -5.5
    ],
    "originalSize": [
      119,
      74
    ],
    "capInsets": [
      0,
      0,
      0,
      0
    ]
  }
}