{
  "__type__": "cc.SpriteFrame",
  "content": {
    "name": "attack_1_10",
    "texture": "faa72cc8-d207-4d85-a4a5-36063726b346",
    "atlas": "",
    "rect": [
      46,
      30,
      177,
      194
    ],
    "offset": [
      12,
      -1
    ],
    "originalSize": [
      245,
      252
    ],
    "capInsets": [
      0,
      0,
      0,
      0
    ]
  }
}