{
  "__type__": "cc.SpriteFrame",
  "content": {
    "name": "idle_6",
    "texture": "12be53a1-7f20-44b6-b4da-9d1c99a0d82d",
    "atlas": "",
    "rect": [
      2,
      5,
      136,
      186
    ],
    "offset": [
      -1,
      10.5
    ],
    "originalSize": [
      142,
      217
    ],
    "capInsets": [
      0,
      0,
      0,
      0
    ]
  }
}