{
  "__type__": "cc.SpriteFrame",
  "content": {
    "name": "attack_3_08",
    "texture": "b5c65c36-80f1-4508-ac23-ce633c875cb1",
    "atlas": "",
    "rect": [
      94,
      37,
      207,
      156
    ],
    "offset": [
      34.5,
      7
    ],
    "originalSize": [
      326,
      244
    ],
    "capInsets": [
      0,
      0,
      0,
      0
    ]
  }
}