{
  "__type__": "cc.SpriteFrame",
  "content": {
    "name": "idle_2_4",
    "texture": "40d4d309-20df-4864-b176-a60e30561459",
    "atlas": "",
    "rect": [
      3,
      5,
      75,
      59
    ],
    "offset": [
      -4,
      -2.5
    ],
    "originalSize": [
      89,
      64
    ],
    "capInsets": [
      0,
      0,
      0,
      0
    ]
  }
}