{
  "__type__": "cc.SpriteFrame",
  "content": {
    "name": "rise",
    "texture": "688969b5-acd1-4156-93cf-744728cb1b00",
    "atlas": "",
    "rect": [
      5,
      13,
      131,
      154
    ],
    "offset": [
      -2.5,
      -4.5
    ],
    "originalSize": [
      146,
      171
    ],
    "capInsets": [
      0,
      0,
      0,
      0
    ]
  }
}