{
  "__type__": "cc.SpriteFrame",
  "content": {
    "name": "idle_02",
    "texture": "eb1e1eba-f231-4acc-b213-8fb8329661cb",
    "atlas": "",
    "rect": [
      13,
      7,
      437,
      292
    ],
    "offset": [
      -5.5,
      38.5
    ],
    "originalSize": [
      474,
      383
    ],
    "capInsets": [
      0,
      0,
      0,
      0
    ]
  }
}