{
  "__type__": "cc.SpriteFrame",
  "content": {
    "name": "house_inside_4",
    "texture": "26f41fb9-9650-4310-88dd-ee4a52db3296",
    "atlas": "",
    "rect": [
      0,
      0,
      1356,
      819
    ],
    "offset": [
      0,
      0
    ],
    "originalSize": [
      1356,
      819
    ],
    "capInsets": [
      0,
      0,
      0,
      0
    ]
  }
}