{
  "__type__": "cc.SpriteFrame",
  "content": {
    "name": "idle_3",
    "texture": "c3a91a4b-c858-41c1-b677-08ec26e79a19",
    "atlas": "",
    "rect": [
      3,
      5,
      140,
      89
    ],
    "offset": [
      0.5,
      -2
    ],
    "originalSize": [
      145,
      95
    ],
    "capInsets": [
      0,
      0,
      0,
      0
    ]
  }
}