{
  "__type__": "cc.SpriteFrame",
  "content": {
    "name": "cave_background_2",
    "texture": "1de24ba6-f7a7-4a61-8951-083924913468",
    "atlas": "",
    "rect": [
      1,
      0,
      774,
      293
    ],
    "offset": [
      0.5,
      0
    ],
    "originalSize": [
      775,
      293
    ],
    "capInsets": [
      0,
      0,
      0,
      0
    ]
  }
}