{
  "__type__": "cc.SpriteFrame",
  "content": {
    "name": "die_05",
    "texture": "5b700f64-b25d-4229-8c6d-91565bb43a21",
    "atlas": "",
    "rect": [
      15,
      133,
      206,
      94
    ],
    "offset": [
      -30,
      -43.5
    ],
    "originalSize": [
      296,
      273
    ],
    "capInsets": [
      0,
      0,
      0,
      0
    ]
  }
}