{
  "__type__": "cc.SpriteFrame",
  "content": {
    "name": "teleport_04",
    "texture": "0a82a5ea-2b7e-4413-83fe-cc0c71d26503",
    "atlas": "",
    "rect": [
      17,
      10,
      179,
      221
    ],
    "offset": [
      -6,
      13.5
    ],
    "originalSize": [
      225,
      268
    ],
    "capInsets": [
      0,
      0,
      0,
      0
    ]
  }
}