{
  "__type__": "cc.SpriteFrame",
  "content": {
    "name": "attack_1_13",
    "texture": "8d5d51a7-d978-4f96-ac66-f2f0d6fc2870",
    "atlas": "",
    "rect": [
      159,
      158,
      571,
      275
    ],
    "offset": [
      67.5,
      -43
    ],
    "originalSize": [
      754,
      505
    ],
    "capInsets": [
      0,
      0,
      0,
      0
    ]
  }
}