{
  "__type__": "cc.SpriteFrame",
  "content": {
    "name": "dead_skeleton_2",
    "texture": "297b2d2a-8267-4570-92d4-fd53ad8338f5",
    "atlas": "",
    "rect": [
      0,
      0,
      190,
      88
    ],
    "offset": [
      0,
      0
    ],
    "originalSize": [
      190,
      88
    ],
    "capInsets": [
      0,
      0,
      0,
      0
    ]
  }
}