{
  "__type__": "cc.SpriteFrame",
  "content": {
    "name": "attack_14",
    "texture": "26e94192-b3ff-471c-a586-b6f77629e299",
    "atlas": "",
    "rect": [
      18,
      9,
      165,
      167
    ],
    "offset": [
      -7,
      6.5
    ],
    "originalSize": [
      215,
      198
    ],
    "capInsets": [
      0,
      0,
      0,
      0
    ]
  }
}