{
  "__type__": "cc.SpriteFrame",
  "content": {
    "name": "stun_01",
    "texture": "a6b1e8be-464f-407c-84f4-b8a554e1af71",
    "atlas": "",
    "rect": [
      31,
      15,
      437,
      295
    ],
    "offset": [
      2.5,
      35.5
    ],
    "originalSize": [
      494,
      396
    ],
    "capInsets": [
      0,
      0,
      0,
      0
    ]
  }
}