{
  "__type__": "cc.SpriteFrame",
  "content": {
    "name": "attack_2_04",
    "texture": "698aacb6-9ed1-4040-9d76-130be263101d",
    "atlas": "",
    "rect": [
      16,
      9,
      388,
      291
    ],
    "offset": [
      -57,
      35.5
    ],
    "originalSize": [
      534,
      380
    ],
    "capInsets": [
      0,
      0,
      0,
      0
    ]
  }
}