{
  "__type__": "cc.SpriteFrame",
  "content": {
    "name": "fireplace_2",
    "texture": "9876d24d-a0b3-49e9-802d-cb4ba4c09889",
    "atlas": "",
    "rect": [
      9,
      0,
      298,
      292
    ],
    "offset": [
      3,
      0
    ],
    "originalSize": [
      310,
      292
    ],
    "capInsets": [
      0,
      0,
      0,
      0
    ]
  }
}