{
  "__type__": "cc.SpriteFrame",
  "content": {
    "name": "attack_1_4",
    "texture": "f09ae200-3c55-4ecd-8bd4-3e4d212caa4a",
    "atlas": "",
    "rect": [
      42,
      4,
      112,
      173
    ],
    "offset": [
      -34.5,
      16
    ],
    "originalSize": [
      265,
      213
    ],
    "capInsets": [
      0,
      0,
      0,
      0
    ]
  }
}