{
  "__type__": "cc.SpriteFrame",
  "content": {
    "name": "run_08",
    "texture": "a5b505e5-18fc-4883-9c9b-a56df6535122",
    "atlas": "",
    "rect": [
      6,
      2,
      136,
      92
    ],
    "offset": [
      2.5,
      2
    ],
    "originalSize": [
      143,
      100
    ],
    "capInsets": [
      0,
      0,
      0,
      0
    ]
  }
}