{
  "__type__": "cc.SpriteFrame",
  "content": {
    "name": "board",
    "texture": "5e1cd258-5bee-46c3-9284-9cea707d3cf6",
    "atlas": "",
    "rect": [
      0,
      0,
      512,
      512
    ],
    "offset": [
      0,
      0
    ],
    "originalSize": [
      512,
      512
    ],
    "capInsets": [
      0,
      0,
      0,
      0
    ]
  }
}