{
  "__type__": "cc.SpriteFrame",
  "content": {
    "name": "attack_2_06",
    "texture": "61b8ea4d-56a5-4ced-891f-e7c88d53bbbb",
    "atlas": "",
    "rect": [
      16,
      9,
      374,
      291
    ],
    "offset": [
      -64,
      35.5
    ],
    "originalSize": [
      534,
      380
    ],
    "capInsets": [
      0,
      0,
      0,
      0
    ]
  }
}