{
  "__type__": "cc.SpriteFrame",
  "content": {
    "name": "walk_4",
    "texture": "24065134-bce1-4c35-98eb-639b2d59c023",
    "atlas": "",
    "rect": [
      0,
      5,
      79,
      60
    ],
    "offset": [
      -0.5,
      -1.5
    ],
    "originalSize": [
      80,
      67
    ],
    "capInsets": [
      0,
      0,
      0,
      0
    ]
  }
}