{
  "__type__": "cc.SpriteFrame",
  "content": {
    "name": "attack_1_11",
    "texture": "e0439612-8773-47f2-bb4d-1bb2b32630ec",
    "atlas": "",
    "rect": [
      46,
      19,
      188,
      205
    ],
    "offset": [
      17.5,
      4.5
    ],
    "originalSize": [
      245,
      252
    ],
    "capInsets": [
      0,
      0,
      0,
      0
    ]
  }
}