{
  "__type__": "cc.SpriteFrame",
  "content": {
    "name": "attack_04",
    "texture": "de89f0f5-4e11-4db5-b56e-d4718f784393",
    "atlas": "",
    "rect": [
      28,
      23,
      129,
      103
    ],
    "offset": [
      14,
      8
    ],
    "originalSize": [
      157,
      165
    ],
    "capInsets": [
      0,
      0,
      0,
      0
    ]
  }
}