{
  "__type__": "cc.SpriteFrame",
  "content": {
    "name": "attack_1_2",
    "texture": "bb32d9f3-c906-4864-8244-b7bad534ce33",
    "atlas": "",
    "rect": [
      42,
      10,
      112,
      167
    ],
    "offset": [
      -34.5,
      13
    ],
    "originalSize": [
      265,
      213
    ],
    "capInsets": [
      0,
      0,
      0,
      0
    ]
  }
}