{
  "__type__": "cc.SpriteFrame",
  "content": {
    "name": "idle_1",
    "texture": "52b136a9-02b1-433d-8412-79ee222f5d00",
    "atlas": "",
    "rect": [
      2,
      2,
      135,
      189
    ],
    "offset": [
      -1.5,
      12
    ],
    "originalSize": [
      142,
      217
    ],
    "capInsets": [
      0,
      0,
      0,
      0
    ]
  }
}