{
  "__type__": "cc.SpriteFrame",
  "content": {
    "name": "index",
    "texture": "169a71da-b8f9-4703-8bdb-655454ee43d8",
    "atlas": "",
    "rect": [
      0,
      0,
      114,
      92
    ],
    "offset": [
      0,
      0
    ],
    "originalSize": [
      114,
      92
    ],
    "capInsets": [
      0,
      0,
      0,
      0
    ]
  }
}