{
  "__type__": "cc.SpriteFrame",
  "content": {
    "name": "bat_leg_r",
    "texture": "b9a774e1-4634-40ba-864d-ad8e10b18dbb",
    "atlas": "",
    "rect": [
      2,
      0,
      14,
      22
    ],
    "offset": [
      1,
      0
    ],
    "originalSize": [
      16,
      22
    ],
    "capInsets": [
      0,
      0,
      0,
      0
    ]
  }
}