{
  "__type__": "cc.SpriteFrame",
  "content": {
    "name": "bulletin_board",
    "texture": "ba2641e3-2d08-4121-aef5-414d50f57258",
    "atlas": "",
    "rect": [
      0,
      0,
      327,
      209
    ],
    "offset": [
      0,
      0
    ],
    "originalSize": [
      327,
      209
    ],
    "capInsets": [
      0,
      0,
      0,
      0
    ]
  }
}