{
  "__type__": "cc.SpriteFrame",
  "content": {
    "name": "furnace_0",
    "texture": "f2d9cf46-1827-416f-bd42-1845e741850e",
    "atlas": "",
    "rect": [
      0,
      0,
      349,
      300
    ],
    "offset": [
      -0.5,
      0
    ],
    "originalSize": [
      350,
      300
    ],
    "capInsets": [
      0,
      0,
      0,
      0
    ]
  }
}