{
  "__type__": "cc.SpriteFrame",
  "content": {
    "name": "key_2",
    "texture": "9e9fe7a3-8fdd-4904-8f0b-3b7cf3ba877a",
    "atlas": "",
    "rect": [
      0,
      0,
      57,
      37
    ],
    "offset": [
      0,
      0.5
    ],
    "originalSize": [
      57,
      38
    ],
    "capInsets": [
      0,
      0,
      0,
      0
    ]
  }
}