{
  "__type__": "cc.SpriteFrame",
  "content": {
    "name": "bank_1",
    "texture": "ae65f915-5bad-47f9-9513-bc9dd5e3ea57",
    "atlas": "",
    "rect": [
      1,
      1,
      52,
      52
    ],
    "offset": [
      0.5,
      -0.5
    ],
    "originalSize": [
      53,
      53
    ],
    "capInsets": [
      0,
      0,
      0,
      0
    ]
  }
}