{
  "__type__": "cc.SpriteFrame",
  "content": {
    "name": "Plank_02",
    "texture": "21cf07ea-fc3c-4580-b87a-aab4a529d83c",
    "atlas": "",
    "rect": [
      0,
      0,
      842,
      182
    ],
    "offset": [
      0,
      0
    ],
    "originalSize": [
      842,
      182
    ],
    "capInsets": [
      0,
      0,
      0,
      0
    ]
  }
}