{
  "__type__": "cc.SpriteFrame",
  "content": {
    "name": "die_8",
    "texture": "acf6ccba-f363-4798-bd7f-5f9e9cfe5ea0",
    "atlas": "",
    "rect": [
      4,
      84,
      161,
      81
    ],
    "offset": [
      -45,
      -34.5
    ],
    "originalSize": [
      259,
      180
    ],
    "capInsets": [
      0,
      0,
      0,
      0
    ]
  }
}