{
  "__type__": "cc.SpriteFrame",
  "content": {
    "name": "shoot_09",
    "texture": "3e3cc078-3f4b-4f23-a321-57f5751e0ed5",
    "atlas": "",
    "rect": [
      22,
      8,
      176,
      100
    ],
    "offset": [
      10.5,
      -4
    ],
    "originalSize": [
      199,
      108
    ],
    "capInsets": [
      0,
      0,
      0,
      0
    ]
  }
}