{
  "__type__": "cc.SpriteFrame",
  "content": {
    "name": "fence_1",
    "texture": "3db092ca-6c68-4d0d-9725-4a12b76687e5",
    "atlas": "",
    "rect": [
      0,
      0,
      208,
      91
    ],
    "offset": [
      0,
      0
    ],
    "originalSize": [
      208,
      91
    ],
    "capInsets": [
      0,
      0,
      0,
      0
    ]
  }
}