{
  "__type__": "cc.SpriteFrame",
  "content": {
    "name": "base_door",
    "texture": "4b2c2954-481c-4630-b4c3-6ddd50b23848",
    "atlas": "",
    "rect": [
      0,
      0,
      124,
      54
    ],
    "offset": [
      0,
      0
    ],
    "originalSize": [
      124,
      54
    ],
    "capInsets": [
      0,
      0,
      0,
      0
    ]
  }
}