{
  "__type__": "cc.SpriteFrame",
  "content": {
    "name": "sheet_2",
    "texture": "eaebedad-f13f-4674-99c9-1040007128cc",
    "atlas": "",
    "rect": [
      0,
      1,
      76,
      83
    ],
    "offset": [
      0,
      3
    ],
    "originalSize": [
      76,
      91
    ],
    "capInsets": [
      0,
      0,
      0,
      0
    ]
  }
}