{
  "__type__": "cc.SpriteFrame",
  "content": {
    "name": "idle_08",
    "texture": "a3c37d2b-9c84-4928-a6cd-c3f710f3065c",
    "atlas": "",
    "rect": [
      2,
      4,
      211,
      169
    ],
    "offset": [
      -2.5,
      -1
    ],
    "originalSize": [
      220,
      175
    ],
    "capInsets": [
      0,
      0,
      0,
      0
    ]
  }
}