{
  "__type__": "cc.SpriteFrame",
  "content": {
    "name": "attack_2_07",
    "texture": "98e8a080-10c3-4eff-bc9f-f510191e06ff",
    "atlas": "",
    "rect": [
      15,
      11,
      190,
      145
    ],
    "offset": [
      0.5,
      11
    ],
    "originalSize": [
      219,
      189
    ],
    "capInsets": [
      0,
      0,
      0,
      0
    ]
  }
}