{
  "__type__": "cc.SpriteFrame",
  "content": {
    "name": "circle_01",
    "texture": "40cc9670-63b1-48f7-a59b-d22cb7a54557",
    "atlas": "",
    "rect": [
      0,
      0,
      155,
      156
    ],
    "offset": [
      0,
      0
    ],
    "originalSize": [
      155,
      156
    ],
    "capInsets": [
      0,
      0,
      0,
      0
    ]
  }
}