{
  "__type__": "cc.SpriteFrame",
  "content": {
    "name": "rocks_1",
    "texture": "367df687-a9ce-4297-b17b-43fddfba7153",
    "atlas": "",
    "rect": [
      0,
      1,
      701,
      223
    ],
    "offset": [
      0,
      -0.5
    ],
    "originalSize": [
      701,
      224
    ],
    "capInsets": [
      0,
      0,
      0,
      0
    ]
  }
}