{
  "__type__": "cc.SpriteFrame",
  "content": {
    "name": "run_06",
    "texture": "aa05dcec-ef80-4339-9bd5-e2f08e3b8658",
    "atlas": "",
    "rect": [
      20,
      8,
      126,
      154
    ],
    "offset": [
      -0.5,
      -0.5
    ],
    "originalSize": [
      167,
      169
    ],
    "capInsets": [
      0,
      0,
      0,
      0
    ]
  }
}