{
  "__type__": "cc.SpriteFrame",
  "content": {
    "name": "run_00",
    "texture": "ef3c6ea1-e8dd-42de-9fe6-03a6eb785d8a",
    "atlas": "",
    "rect": [
      2,
      9,
      208,
      173
    ],
    "offset": [
      -11.5,
      -4
    ],
    "originalSize": [
      235,
      183
    ],
    "capInsets": [
      0,
      0,
      0,
      0
    ]
  }
}