{
  "__type__": "cc.SpriteFrame",
  "content": {
    "name": "idle_6",
    "texture": "9491b5fb-a96c-46e9-95bc-2d300dc4dcf8",
    "atlas": "",
    "rect": [
      3,
      4,
      132,
      154
    ],
    "offset": [
      1.5,
      -2
    ],
    "originalSize": [
      135,
      158
    ],
    "capInsets": [
      0,
      0,
      0,
      0
    ]
  }
}