{
  "__type__": "cc.SpriteFrame",
  "content": {
    "name": "attack_6",
    "texture": "676d8bab-d257-4cc4-b255-ffb1b47e64c7",
    "atlas": "",
    "rect": [
      25,
      13,
      254,
      100
    ],
    "offset": [
      10.5,
      4.5
    ],
    "originalSize": [
      283,
      135
    ],
    "capInsets": [
      0,
      0,
      0,
      0
    ]
  }
}