{
  "__type__": "cc.SpriteFrame",
  "content": {
    "name": "run_07",
    "texture": "0af2befb-b445-4a08-ace0-5454029c650d",
    "atlas": "",
    "rect": [
      16,
      29,
      90,
      95
    ],
    "offset": [
      -2.5,
      2.5
    ],
    "originalSize": [
      127,
      158
    ],
    "capInsets": [
      0,
      0,
      0,
      0
    ]
  }
}