{
  "__type__": "cc.SpriteFrame",
  "content": {
    "name": "attack_2_08",
    "texture": "1a0ba5a7-868b-41ea-be2c-fd254c3dd21f",
    "atlas": "",
    "rect": [
      32,
      11,
      413,
      289
    ],
    "offset": [
      -28.5,
      34.5
    ],
    "originalSize": [
      534,
      380
    ],
    "capInsets": [
      0,
      0,
      0,
      0
    ]
  }
}