{
  "__type__": "cc.SpriteFrame",
  "content": {
    "name": "furnace_3",
    "texture": "461b4d7c-8c99-4a15-aa0e-907ad0d1c4e9",
    "atlas": "",
    "rect": [
      0,
      0,
      349,
      300
    ],
    "offset": [
      -0.5,
      0
    ],
    "originalSize": [
      350,
      300
    ],
    "capInsets": [
      0,
      0,
      0,
      0
    ]
  }
}