{
  "__type__": "cc.SpriteFrame",
  "content": {
    "name": "attack_06",
    "texture": "4f425d81-58de-4090-8b68-81d242c31614",
    "atlas": "",
    "rect": [
      6,
      5,
      216,
      148
    ],
    "offset": [
      -56,
      -1
    ],
    "originalSize": [
      340,
      156
    ],
    "capInsets": [
      0,
      0,
      0,
      0
    ]
  }
}