{
  "__type__": "cc.SpriteFrame",
  "content": {
    "name": "attack_05",
    "texture": "27a556e9-b752-4f9c-8f63-9879bb750e44",
    "atlas": "",
    "rect": [
      15,
      5,
      216,
      148
    ],
    "offset": [
      -47,
      -1
    ],
    "originalSize": [
      340,
      156
    ],
    "capInsets": [
      0,
      0,
      0,
      0
    ]
  }
}