{
  "__type__": "cc.SpriteFrame",
  "content": {
    "name": "attack_00",
    "texture": "431d425e-1d1c-47cb-9081-e1a4679645ad",
    "atlas": "",
    "rect": [
      61,
      4,
      211,
      149
    ],
    "offset": [
      -3.5,
      -0.5
    ],
    "originalSize": [
      340,
      156
    ],
    "capInsets": [
      0,
      0,
      0,
      0
    ]
  }
}