{
  "__type__": "cc.SpriteFrame",
  "content": {
    "name": "idle_04",
    "texture": "1834a51d-5d35-47fd-9ad4-bd3e84b63249",
    "atlas": "",
    "rect": [
      2,
      7,
      186,
      150
    ],
    "offset": [
      1,
      6.5
    ],
    "originalSize": [
      188,
      177
    ],
    "capInsets": [
      0,
      0,
      0,
      0
    ]
  }
}