{
  "__type__": "cc.SpriteFrame",
  "content": {
    "name": "die_00",
    "texture": "a82d21c8-8ebd-40c8-ad19-6982202514d6",
    "atlas": "",
    "rect": [
      141,
      15,
      141,
      149
    ],
    "offset": [
      48,
      14
    ],
    "originalSize": [
      327,
      207
    ],
    "capInsets": [
      0,
      0,
      0,
      0
    ]
  }
}