{
  "__type__": "cc.SpriteFrame",
  "content": {
    "name": "run_00",
    "texture": "601d193e-07ff-4c4a-b5cc-05610dea508e",
    "atlas": "",
    "rect": [
      0,
      8,
      141,
      149
    ],
    "offset": [
      -8,
      5
    ],
    "originalSize": [
      157,
      175
    ],
    "capInsets": [
      0,
      0,
      0,
      0
    ]
  }
}