{
  "__type__": "cc.SpriteFrame",
  "content": {
    "name": "walk_6",
    "texture": "4b549c39-25db-4a62-9357-bbf8a8b3c014",
    "atlas": "",
    "rect": [
      0,
      2,
      78,
      63
    ],
    "offset": [
      -1,
      0
    ],
    "originalSize": [
      80,
      67
    ],
    "capInsets": [
      0,
      0,
      0,
      0
    ]
  }
}