{
  "__type__": "cc.SpriteFrame",
  "content": {
    "name": "house_inside_2",
    "texture": "20e4a6f2-ee5f-46a3-ac08-4cc4a6220c63",
    "atlas": "",
    "rect": [
      1,
      22,
      1173,
      427
    ],
    "offset": [
      0.5,
      -6
    ],
    "originalSize": [
      1174,
      459
    ],
    "capInsets": [
      0,
      0,
      0,
      0
    ]
  }
}