{
  "__type__": "cc.SpriteFrame",
  "content": {
    "name": "attack_03",
    "texture": "efb5eefa-0372-431a-9600-c392408ee138",
    "atlas": "",
    "rect": [
      45,
      5,
      214,
      148
    ],
    "offset": [
      -18,
      -1
    ],
    "originalSize": [
      340,
      156
    ],
    "capInsets": [
      0,
      0,
      0,
      0
    ]
  }
}