{
  "__type__": "cc.SpriteFrame",
  "content": {
    "name": "crystal_4",
    "texture": "18325caa-155c-446b-8e15-0a950f8fe060",
    "atlas": "",
    "rect": [
      0,
      1,
      76,
      107
    ],
    "offset": [
      0,
      -0.5
    ],
    "originalSize": [
      76,
      108
    ],
    "capInsets": [
      0,
      0,
      0,
      0
    ]
  }
}