{
  "__type__": "cc.SpriteFrame",
  "content": {
    "name": "run_06",
    "texture": "7f6f1083-1e84-4c70-8ee7-f0b969e3b9cc",
    "atlas": "",
    "rect": [
      46,
      2,
      348,
      293
    ],
    "offset": [
      -26,
      36
    ],
    "originalSize": [
      492,
      369
    ],
    "capInsets": [
      0,
      0,
      0,
      0
    ]
  }
}