{
  "__type__": "cc.SpriteFrame",
  "content": {
    "name": "bee_leg2_l",
    "texture": "9762a143-fc61-4759-9195-2cf9081681bc",
    "atlas": "",
    "rect": [
      0,
      0,
      21,
      24
    ],
    "offset": [
      0,
      0
    ],
    "originalSize": [
      21,
      24
    ],
    "capInsets": [
      0,
      0,
      0,
      0
    ]
  }
}