{
  "__type__": "cc.SpriteFrame",
  "content": {
    "name": "die_09",
    "texture": "eb69f358-9e18-4155-ade8-1823aa5404db",
    "atlas": "",
    "rect": [
      60,
      146,
      721,
      211
    ],
    "offset": [
      18.5,
      -33
    ],
    "originalSize": [
      804,
      437
    ],
    "capInsets": [
      0,
      0,
      0,
      0
    ]
  }
}