{
  "__type__": "cc.SpriteFrame",
  "content": {
    "name": "attack_1_07",
    "texture": "ff7779b9-30bb-4a7e-8560-81ef3ad0115f",
    "atlas": "",
    "rect": [
      12,
      10,
      164,
      201
    ],
    "offset": [
      -28.5,
      15.5
    ],
    "originalSize": [
      245,
      252
    ],
    "capInsets": [
      0,
      0,
      0,
      0
    ]
  }
}