{
  "__type__": "cc.SpriteFrame",
  "content": {
    "name": "attack_1_11",
    "texture": "4ab97095-1970-4bb3-8909-eda4abbd0747",
    "atlas": "",
    "rect": [
      13,
      102,
      332,
      331
    ],
    "offset": [
      -198,
      -15
    ],
    "originalSize": [
      754,
      505
    ],
    "capInsets": [
      0,
      0,
      0,
      0
    ]
  }
}