{
  "__type__": "cc.SpriteFrame",
  "content": {
    "name": "action_08",
    "texture": "40a6a69c-bc94-435e-9b68-a650e516d0b4",
    "atlas": "",
    "rect": [
      57,
      38,
      182,
      156
    ],
    "offset": [
      28.5,
      -18
    ],
    "originalSize": [
      239,
      196
    ],
    "capInsets": [
      0,
      0,
      0,
      0
    ]
  }
}