{
  "__type__": "cc.SpriteFrame",
  "content": {
    "name": "idle_8",
    "texture": "a999f9cf-2fd8-45b9-9fb8-6e08a09a855e",
    "atlas": "",
    "rect": [
      3,
      1,
      139,
      93
    ],
    "offset": [
      0,
      0
    ],
    "originalSize": [
      145,
      95
    ],
    "capInsets": [
      0,
      0,
      0,
      0
    ]
  }
}