{
  "__type__": "cc.SpriteFrame",
  "content": {
    "name": "idle_7",
    "texture": "2fa22e6a-6ff7-4d47-bd45-ec18953ffc67",
    "atlas": "",
    "rect": [
      2,
      2,
      110,
      155
    ],
    "offset": [
      0.5,
      -1
    ],
    "originalSize": [
      113,
      157
    ],
    "capInsets": [
      0,
      0,
      0,
      0
    ]
  }
}