{
  "__type__": "cc.SpriteFrame",
  "content": {
    "name": "button_01_03",
    "texture": "19aaea04-b2da-4848-9c2f-8c589dca1478",
    "atlas": "",
    "rect": [
      0,
      0,
      88,
      88
    ],
    "offset": [
      0,
      0
    ],
    "originalSize": [
      88,
      88
    ],
    "capInsets": [
      0,
      0,
      0,
      0
    ]
  }
}