{
  "__type__": "cc.SpriteFrame",
  "content": {
    "name": "attack_2_06",
    "texture": "21cbad8f-abf0-4f54-96a9-ff3e810b35f7",
    "atlas": "",
    "rect": [
      3,
      4,
      126,
      145
    ],
    "offset": [
      -27.5,
      0
    ],
    "originalSize": [
      187,
      153
    ],
    "capInsets": [
      0,
      0,
      0,
      0
    ]
  }
}