{
  "__type__": "cc.SpriteFrame",
  "content": {
    "name": "roll_06",
    "texture": "bd39cfbe-b608-4574-8e9a-5b11ee3e7b33",
    "atlas": "",
    "rect": [
      57,
      63,
      132,
      137
    ],
    "offset": [
      -1.5,
      -23.5
    ],
    "originalSize": [
      249,
      216
    ],
    "capInsets": [
      0,
      0,
      0,
      0
    ]
  }
}