{
  "__type__": "cc.SpriteFrame",
  "content": {
    "name": "attack_06",
    "texture": "3a69cc3b-e811-4944-a693-083f117e5c27",
    "atlas": "",
    "rect": [
      2,
      17,
      119,
      137
    ],
    "offset": [
      -17,
      -3
    ],
    "originalSize": [
      157,
      165
    ],
    "capInsets": [
      0,
      0,
      0,
      0
    ]
  }
}