{
  "__type__": "cc.SpriteFrame",
  "content": {
    "name": "run_00",
    "texture": "d5d95f58-acc4-446f-9439-387c6e3bd519",
    "atlas": "",
    "rect": [
      3,
      0,
      138,
      93
    ],
    "offset": [
      0.5,
      3.5
    ],
    "originalSize": [
      143,
      100
    ],
    "capInsets": [
      0,
      0,
      0,
      0
    ]
  }
}