{
  "__type__": "cc.SpriteFrame",
  "content": {
    "name": "chandelier_1",
    "texture": "41c57b09-6413-403a-b322-3e31018fbff3",
    "atlas": "",
    "rect": [
      0,
      0,
      235,
      183
    ],
    "offset": [
      0,
      0
    ],
    "originalSize": [
      235,
      183
    ],
    "capInsets": [
      0,
      0,
      0,
      0
    ]
  }
}