{
  "__type__": "cc.SpriteFrame",
  "content": {
    "name": "house_sign_3",
    "texture": "998c9960-6392-4df3-9e1a-e521277e2fb3",
    "atlas": "",
    "rect": [
      0,
      0,
      133,
      145
    ],
    "offset": [
      0,
      0
    ],
    "originalSize": [
      133,
      145
    ],
    "capInsets": [
      0,
      0,
      0,
      0
    ]
  }
}