{
  "__type__": "cc.SpriteFrame",
  "content": {
    "name": "attack_11",
    "texture": "1aebb4be-72f4-4101-a924-1bbfe57e4059",
    "atlas": "",
    "rect": [
      4,
      7,
      184,
      174
    ],
    "offset": [
      -10,
      6.5
    ],
    "originalSize": [
      212,
      201
    ],
    "capInsets": [
      0,
      0,
      0,
      0
    ]
  }
}