{
  "__type__": "cc.SpriteFrame",
  "content": {
    "name": "platform_2",
    "texture": "1cd8afb1-cf4f-44c4-9cf3-6c387356c800",
    "atlas": "",
    "rect": [
      1,
      0,
      392,
      54
    ],
    "offset": [
      0.5,
      0
    ],
    "originalSize": [
      393,
      54
    ],
    "capInsets": [
      0,
      0,
      0,
      0
    ]
  }
}