{
  "__type__": "cc.SpriteFrame",
  "content": {
    "name": "boss_leg_l",
    "texture": "5da1b2f6-a57f-4cb0-84df-3335626ef046",
    "atlas": "",
    "rect": [
      9,
      4,
      43,
      42
    ],
    "offset": [
      0.5,
      5
    ],
    "originalSize": [
      60,
      60
    ],
    "capInsets": [
      0,
      0,
      0,
      0
    ]
  }
}