{
  "__type__": "cc.SpriteFrame",
  "content": {
    "name": "run_10",
    "texture": "9a373b53-99c5-47a2-aed1-35cee693b635",
    "atlas": "",
    "rect": [
      3,
      0,
      138,
      93
    ],
    "offset": [
      0.5,
      3.5
    ],
    "originalSize": [
      143,
      100
    ],
    "capInsets": [
      0,
      0,
      0,
      0
    ]
  }
}