{
  "__type__": "cc.SpriteFrame",
  "content": {
    "name": "idle_7",
    "texture": "07169ce6-383e-4834-be6a-56ac05f21c9a",
    "atlas": "",
    "rect": [
      3,
      3,
      139,
      91
    ],
    "offset": [
      0,
      -1
    ],
    "originalSize": [
      145,
      95
    ],
    "capInsets": [
      0,
      0,
      0,
      0
    ]
  }
}