{
  "__type__": "cc.SpriteFrame",
  "content": {
    "name": "idle_2_2",
    "texture": "1f2e9762-153c-4f6d-9803-e02328b6c9b2",
    "atlas": "",
    "rect": [
      6,
      14,
      72,
      50
    ],
    "offset": [
      -2.5,
      -7
    ],
    "originalSize": [
      89,
      64
    ],
    "capInsets": [
      0,
      0,
      0,
      0
    ]
  }
}