{
  "__type__": "cc.SpriteFrame",
  "content": {
    "name": "idle_1",
    "texture": "cf86cd4c-e713-454d-aaeb-e4650422b95d",
    "atlas": "",
    "rect": [
      9,
      2,
      212,
      147
    ],
    "offset": [
      1,
      0.5
    ],
    "originalSize": [
      228,
      152
    ],
    "capInsets": [
      0,
      0,
      0,
      0
    ]
  }
}