{
  "__type__": "cc.SpriteFrame",
  "content": {
    "name": "attack_2_16",
    "texture": "5a335cef-f4b8-40b7-84ed-aa33bf8f4d95",
    "atlas": "",
    "rect": [
      22,
      4,
      478,
      296
    ],
    "offset": [
      -6,
      38
    ],
    "originalSize": [
      534,
      380
    ],
    "capInsets": [
      0,
      0,
      0,
      0
    ]
  }
}