{
  "__type__": "cc.SpriteFrame",
  "content": {
    "name": "idle_4",
    "texture": "2028972d-d1ea-4a7c-ad89-d261e8cddbdb",
    "atlas": "",
    "rect": [
      1,
      9,
      172,
      149
    ],
    "offset": [
      -1.5,
      -2
    ],
    "originalSize": [
      177,
      163
    ],
    "capInsets": [
      0,
      0,
      0,
      0
    ]
  }
}