{
  "__type__": "cc.SpriteFrame",
  "content": {
    "name": "break_2",
    "texture": "23266d8b-6003-4116-853f-00df9f1ae4b6",
    "atlas": "",
    "rect": [
      0,
      19,
      225,
      135
    ],
    "offset": [
      0,
      3.5
    ],
    "originalSize": [
      225,
      180
    ],
    "capInsets": [
      0,
      0,
      0,
      0
    ]
  }
}