{
  "__type__": "cc.SpriteFrame",
  "content": {
    "name": "impact2_5",
    "texture": "a23b1d76-9349-4aab-8980-16c11af42862",
    "atlas": "",
    "rect": [
      3,
      8,
      321,
      228
    ],
    "offset": [
      0.5,
      -3
    ],
    "originalSize": [
      326,
      238
    ],
    "capInsets": [
      0,
      0,
      0,
      0
    ]
  }
}