{
  "__type__": "cc.SpriteFrame",
  "content": {
    "name": "attack_3_09",
    "texture": "e8973c03-c98d-4a1e-999c-80b592f979af",
    "atlas": "",
    "rect": [
      85,
      44,
      236,
      160
    ],
    "offset": [
      40,
      -2
    ],
    "originalSize": [
      326,
      244
    ],
    "capInsets": [
      0,
      0,
      0,
      0
    ]
  }
}