{
  "__type__": "cc.SpriteFrame",
  "content": {
    "name": "books_2",
    "texture": "2d0c50a2-4c15-4e8c-b66c-cd9baec04f8b",
    "atlas": "",
    "rect": [
      0,
      0,
      114,
      89
    ],
    "offset": [
      0,
      0
    ],
    "originalSize": [
      114,
      89
    ],
    "capInsets": [
      0,
      0,
      0,
      0
    ]
  }
}