{
  "__type__": "cc.SpriteFrame",
  "content": {
    "name": "rise",
    "texture": "fd922167-e607-4faa-a66c-80356f75a46c",
    "atlas": "",
    "rect": [
      5,
      13,
      131,
      155
    ],
    "offset": [
      -2.5,
      -4.5
    ],
    "originalSize": [
      146,
      172
    ],
    "capInsets": [
      0,
      0,
      0,
      0
    ]
  }
}