{
  "__type__": "cc.SpriteFrame",
  "content": {
    "name": "roll_03",
    "texture": "f66819b1-f45a-4657-8bc7-c11d7ae38bed",
    "atlas": "",
    "rect": [
      85,
      67,
      149,
      165
    ],
    "offset": [
      31,
      -22
    ],
    "originalSize": [
      257,
      255
    ],
    "capInsets": [
      0,
      0,
      0,
      0
    ]
  }
}