{
  "__type__": "cc.SpriteFrame",
  "content": {
    "name": "skeleton_archer_arm_l",
    "texture": "ffd324d6-5435-406b-9f0b-398ea60110d7",
    "atlas": "",
    "rect": [
      0,
      0,
      46,
      162
    ],
    "offset": [
      0,
      0
    ],
    "originalSize": [
      46,
      162
    ],
    "capInsets": [
      0,
      0,
      0,
      0
    ]
  }
}