{
  "__type__": "cc.SpriteFrame",
  "content": {
    "name": "bee_wing_r",
    "texture": "a82f72e1-bb50-499d-ae07-34d7d768f8a2",
    "atlas": "",
    "rect": [
      0,
      0,
      50,
      55
    ],
    "offset": [
      0,
      0
    ],
    "originalSize": [
      50,
      55
    ],
    "capInsets": [
      0,
      0,
      0,
      0
    ]
  }
}