{
  "__type__": "cc.SpriteFrame",
  "content": {
    "name": "bench",
    "texture": "c17a88a0-bfb4-492e-8e37-0a9063d549d9",
    "atlas": "",
    "rect": [
      5,
      4,
      267,
      94
    ],
    "offset": [
      -1,
      -2
    ],
    "originalSize": [
      279,
      98
    ],
    "capInsets": [
      0,
      0,
      0,
      0
    ]
  }
}