{
  "__type__": "cc.SpriteFrame",
  "content": {
    "name": "run_04",
    "texture": "5f130e96-fdb0-4a32-b368-5761a426ebe3",
    "atlas": "",
    "rect": [
      26,
      9,
      174,
      154
    ],
    "offset": [
      6,
      13.5
    ],
    "originalSize": [
      214,
      199
    ],
    "capInsets": [
      0,
      0,
      0,
      0
    ]
  }
}