{
  "__type__": "cc.SpriteFrame",
  "content": {
    "name": "tower",
    "texture": "0639d0bf-f2a2-48a0-a34e-d53090627301",
    "atlas": "",
    "rect": [
      0,
      1,
      731,
      996
    ],
    "offset": [
      0,
      -0.5
    ],
    "originalSize": [
      731,
      997
    ],
    "capInsets": [
      0,
      0,
      0,
      0
    ]
  }
}