{
  "__type__": "cc.SpriteFrame",
  "content": {
    "name": "teleport_03",
    "texture": "22ee8331-2a60-451b-a8fe-614b822e1674",
    "atlas": "",
    "rect": [
      15,
      25,
      164,
      206
    ],
    "offset": [
      -15.5,
      6
    ],
    "originalSize": [
      225,
      268
    ],
    "capInsets": [
      0,
      0,
      0,
      0
    ]
  }
}