{
  "__type__": "cc.SpriteFrame",
  "content": {
    "name": "die_02",
    "texture": "114c4335-6a34-4ae0-867c-f5c89998d683",
    "atlas": "",
    "rect": [
      218,
      22,
      527,
      327
    ],
    "offset": [
      79.5,
      33
    ],
    "originalSize": [
      804,
      437
    ],
    "capInsets": [
      0,
      0,
      0,
      0
    ]
  }
}