{
  "__type__": "cc.SpriteFrame",
  "content": {
    "name": "chair_3",
    "texture": "12f528e4-85f3-4d5a-98e6-969fc88df10a",
    "atlas": "",
    "rect": [
      0,
      1,
      107,
      116
    ],
    "offset": [
      0,
      -0.5
    ],
    "originalSize": [
      107,
      117
    ],
    "capInsets": [
      0,
      0,
      0,
      0
    ]
  }
}