{
  "__type__": "cc.SpriteFrame",
  "content": {
    "name": "idle_3",
    "texture": "ee82b2d9-da4e-400c-bd34-1f4168101e2a",
    "atlas": "",
    "rect": [
      3,
      5,
      165,
      155
    ],
    "offset": [
      -12,
      11.5
    ],
    "originalSize": [
      195,
      188
    ],
    "capInsets": [
      0,
      0,
      0,
      0
    ]
  }
}