{
  "__type__": "cc.SpriteFrame",
  "content": {
    "name": "house_inside_3",
    "texture": "a2438920-2820-43f4-8b3d-2d5605aa6549",
    "atlas": "",
    "rect": [
      0,
      2,
      1580,
      425
    ],
    "offset": [
      0,
      -1
    ],
    "originalSize": [
      1580,
      427
    ],
    "capInsets": [
      0,
      0,
      0,
      0
    ]
  }
}