{
  "__type__": "cc.SpriteFrame",
  "content": {
    "name": "crate",
    "texture": "45420047-253c-4beb-a8eb-8c4bde051ceb",
    "atlas": "",
    "rect": [
      0,
      0,
      138,
      90
    ],
    "offset": [
      0,
      0
    ],
    "originalSize": [
      138,
      90
    ],
    "capInsets": [
      0,
      0,
      0,
      0
    ]
  }
}